module gitlab.com/andrewheberle/duplicacy-fuse/dpfs

go 1.13

require (
	cloud.google.com/go/storage v1.5.0 // indirect
	github.com/Azure/azure-sdk-for-go v39.0.0+incompatible // indirect
	github.com/Azure/go-autorest/autorest v0.9.5 // indirect
	github.com/aryann/difflib v0.0.0-20170710044230-e206f873d14a // indirect
	github.com/aws/aws-sdk-go v1.28.13 // indirect
	github.com/billziss-gh/cgofuse v1.2.0
	github.com/bkaradzic/go-lz4 v1.0.0 // indirect
	github.com/bmizerany/assert v0.0.0-20160611221934-b7ed37b82869 // indirect
	github.com/dnaeon/go-vcr v1.0.1 // indirect
	github.com/gilbertchen/azure-sdk-for-go v14.1.1+incompatible // indirect
	github.com/gilbertchen/duplicacy v2.3.0+incompatible
	github.com/gilbertchen/go-dropbox v0.0.0-20160206021034-90711b603312 // indirect
	github.com/gilbertchen/go-ole v1.2.0 // indirect
	github.com/gilbertchen/go.dbus v0.0.0-20190607191240-8591994fa32f // indirect
	github.com/gilbertchen/goamz v0.0.0-20170712012135-eada9f4e8cc2 // indirect
	github.com/gilbertchen/gopass v0.0.0-20170109162249-bf9dde6d0d2c // indirect
	github.com/gilbertchen/keyring v0.0.0-20170923175943-8855f5632086 // indirect
	github.com/gilbertchen/xattr v0.0.0-20160926155429-68e7a6806b01 // indirect
	github.com/goamz/goamz v0.0.0-20180131231218-8b901b531db8 // indirect
	github.com/guelfey/go.dbus v0.0.0-20131113121618-f6a3a2366cc3 // indirect
	github.com/marstr/guid v1.1.0 // indirect
	github.com/minio/blake2b-simd v0.0.0-20160723061019-3f5f724cb5b1 // indirect
	github.com/ncw/swift v1.0.50 // indirect
	github.com/pkg/sftp v1.11.0 // indirect
	github.com/prologic/bitcask v0.3.5
	github.com/satori/go.uuid v1.2.0
	github.com/segmentio/go-env v1.1.0 // indirect
	github.com/sirupsen/logrus v1.4.2
	github.com/spf13/cast v1.3.0
	github.com/stretchr/testify v1.4.0
	github.com/tj/go-dropbox v0.0.0-20171107035848-42dd2be3662d // indirect
	github.com/tmc/keyring v0.0.0-20171121202319-839169085ae1 // indirect
	github.com/ungerik/go-dry v0.0.0-20180411133923-654ae31114c8 // indirect
	github.com/vaughan0/go-ini v0.0.0-20130923145212-a98ad7ee00ec // indirect
	golang.org/x/crypto v0.0.0-20200208060501-ecb85df21340 // indirect
	golang.org/x/net v0.0.0-20200202094626-16171245cfb2 // indirect
	golang.org/x/oauth2 v0.0.0-20200107190931-bf48bf16ab8d // indirect
	google.golang.org/api v0.17.0 // indirect
)
